ClinicID,ClinicName,Address1,Address2,City,Prov,Country,PostalCode,Phone
4,Jonathan Archibald Professional Corp,10987 105 Street SW,Suite 204,MTL,QC,Canada,H4E 1J7,(514)524-1642
5,Montreal Professional Group,10542 Kingsway Avenue,Suite 200,MTL,QC,Canada,H3E 1R7,(514) 542-6455
6,Douglas Professional Group,208 101 Street NE,,MTL,QC,Canada,H4E 1S2,(514) 545-5471
7,East Montreal Center,19876 145 Street SE,Building 198,MTL,QC,Canada,H4E 1S6,(514) 455-3877
8,Russell Pediatric Group,10989 142 Street NW,Suite 100,MTL,QC,Canada,H4E 1X8,(514) 455-8701
9,Lam Professional Association,8765 Avenue 29 NW,Suite 304,MTL,QC,Canada,H4E 1Y4,(514) 456-8132
10,Maramount Center,9862 Avenue 29 NE,Suite 100,MTL,QC,Canada,H4E 1B1,(514) 453-1544
11,Finley Pediatric Group,10097 Jasper Avenue SW,Building 500,MTL,QC,Canada,H4E 1M9,(514) 355-4674
12,Samuel Clinic,98654 101 Street SW,,MTL,QC,Canada,H4E 3B2,(514) 541-4414
13,Yan Family Clinic,8733 Avenue 10 N,,MTL,QC,Canada,H4E 1B2,(514) 544-5788
14,Hayward Family Clinic,7339 39 Avenue SW,Suite 1008,MTL,QC,Canada,H4E 1N2,(514) 665-4571
15,Mulligan Professional Corporation,98765 101 Street SE,,MTL,QC,Canada,H4E 1B3,(514) 451-0841