PlanID,PlanName,InsuranceNo,Address,City,Prov,Country,PostalCode,Phone,WebSite
1,JSS Consulting Group,146,65 Street S 398,MTL,QC,Canada,H4E 3B2,(450) 555-4144,
2,PruHealth of Canada,2578,97 Street SW,MTL,QC,Canada,H4E 3B7,(514) 541-2652,
3,Benefits Group of Alberta,7426,124 Street NW 205,MTL,QC,Canada,H4E 3T3,(514) 533-5542,
4,Alberta Health Benefits,2575,109 Avenue SW 200,MTL,QC,Canada,H4E 3B7,(450) 221-2121,
5,Health Group  Inc.,3788,10098 Whiteland Road N,MTL,QC,Canada,H4E 3B7,(450) 778-5144,
6,Alberta Coverage for Seniors,7345,105 Avenue SE 105,MTL,QC,Canada,H4E 2H7,(514) 2624-200,www.health.gov.qc.ca
