HouseID,HHPhone,Address,City,Prov,Country,PostalCode
1,(514) 835-8239,87 Amberly Avenue SW,MTL,QC,Canada,H4E 3B7
2,(514) 464-2564,21987 147 Street NE,MTL,QC,Canada,H4E 2H7
3,(514) 254-2463,9057 129 Avenue SE,MTL,QC,Canada,H4E 2B2
4,(514) 573-2567,12998 NW 189 Street,MTL,QC,Canada,H4E 1B1
5,(514) 743-6743,17780 NE 89a Street,MTL,QC,Canada,H4E 1B2
6,(514) 643-5732,11899 100 Avenue NE,MTL,QC,Canada,H4E 3B7
7,(514) 467-3567,11908 115 Street,MTL,QC,Canada,H4E 3B2
8,(514) 257-3643,19987 135 Street,MTL,QC,Canada,H4E 2B1
9,(514) 636-3674,10098 127 Street,MTL,QC,Canada,H4E 2H4
10,(514) 634-2567,8977 134 Avenue S,MTL,QC,Canada,H4E 2H3
11,(514) 836-3674,12234 67 Street SW,MTL,QC,Canada,H4E 3B7
12,(514) 632-6453,3949 199 Avenue,MTL,QC,Canada,H4E 2L4
13,(514) 742-3675,9766 76 Street NE,MTL,QC,Canada,H4E 2L2
14,(514) 734-3456,11988 80 Avenue SW,MTL,QC,Canada,H4E 3T3
15,(514) 735-2466,3838 114 Street SW,MTL,QC,Canada,H4E 3B7
16,(514) 653-2466,6007 78 Street NE,MTL,QC,Canada,H4E 2M2
17,(514) 737-4735,67098 130 Street N,MTL,QC,Canada,H4E 2M1
18,(514) 635-2675,768 Ronning Road,MTL,QC,Canada,H4E 3B7
19,(514) 653-3647,109 Rabbit Hill,MTL,QC,Canada,H4E 2B6
20,(514) 735-6236,901 Holgate Street S,MTL,QC,Canada,H4E 2B5
21,(514) 753-2753,200 Wolf Street SW,MTL,QC,Canada,H4E 2B6
22,(514) 626-2674,18767 67 Street SW 230,MTL,QC,Canada,H4E 3B7
23,(514) 653-6257,19887 34b Street,MTL,QC,Canada,H4E 2H2
24,(514) 653-7265,99876 101 Avenue SW 399,MTL,QC,Canada,H4E 3B7
25,(514) 753-4672,8744 94 Avenue,MTL,QC,Canada,H4E 2L3
26,(514) 625-2652,776 Saddleback Cove W,MTL,QC,Canada,H4E 3B7
27,(514) 634-1466,10876 83 Avenue E,MTL,QC,Canada,H4E 2B2
